{
    "Title":"World War Z",
    "Year": 2013,
    "Runtime":"116 min",
    "Genre":"Action, Adventure, Horror",
    "Plot":"Former United Nations employee Gerry Lane traverses the world in a race against time to stop the Zombie pandemic that is toppling armies and governments, and threatening to destroy humanity itself.",
    "Country":"USA",
    "Poster":"https://images-na.ssl-images-amazon.com/images/M/MV5BMTg0NTgxMjIxOF5BMl5BanBnXkFtZTcwMDM0MDY1OQ@@._V1_SX300.jpg",
    "imdbRating":"7.0",
    "imdbID":"tt0816711"
}
